{
"skills": [
    "Attack",
    "Defence",
    "Strength",
    "Hitpoints",
    "Ranged",
    "Prayer",
    "Magic",
    "Cooking",
    "Woodcutting",
    "Fletching",
    "Fishing",
    "Firemaking",
    "Crafting",
    "Smithing",
    "Mining",
    "Herblore",
    "Agility",
    "Thieving",
    "Slayer",
    "Farming",
    "Runecrafting",
    "Hunter",
    "Construction"
  ],
"level": [
    [0,-1],
    [1,0],
    [2,83],
    [3,174],
    [4,276],
    [5,388],
    [6,512],
    [7,650],
    [8,801],
    [9,969],
    [10,1154],
    [11,1358],
    [12,1584],
    [13,1833],
    [14,2107],
    [15,2411],
    [16,2746],
    [17,3115],
    [18,3523],
    [19,3973],
    [20,4470],
    [21,5018],
    [22,5624],
    [23,6291],
    [24,7028],
    [25,7842],
    [26,8740],
    [27,9730],
    [28,10824],
    [29,12031],
    [30,13363],
    [31,14833],
    [32,16456],
    [33,18247],
    [34,20224],
    [35,22406],
    [36,24815],
    [37,27473],
    [38,30408],
    [39,33648],
    [40,37224],
    [41,41171],
    [42,45529],
    [43,50339],
    [44,55649],
    [45,61512],
    [46,67983],
    [47,75127],
    [48,83014],
    [49,91721],
    [50,101333],
    [51,111945],
    [52,123660],
    [53,136594],
    [54,150872],
    [55,166636],
    [56,184040],
    [57,203254],
    [58,224466],
    [59,247886],
    [60,273742],
    [61,302288],
    [62,333804],
    [63,368599],
    [64,407015],
    [65,449428],
    [66,496254],
    [67,547953],
    [68,605032],
    [69,668051],
    [70,737627],
    [71,814445],
    [72,899257],
    [73,992895],
    [74,1096278],
    [75,1210421],
    [76,1336443],
    [77,1475581],
    [78,1629200],
    [79,1798808],
    [80,1986068],
    [81,2192818],
    [82,2421087],
    [83,2673114],
    [84,2951373],
    [85,3258594],
    [86,3597792],
    [87,3972294],
    [88,4385776],
    [89,4842295],
    [90,5346332],
    [91,5902831],
    [92,6517253],
    [93,7195629],
    [94,7944614],
    [95,8771558],
    [96,9684577],
    [97,10692629],
    [98,11805606],
    [99,13034431],
    [100,14391160],
    [101,15889109],
    [102,17542976],
    [103,19368992],
    [104,21385073],
    [105,23611006],
    [106,26068632],
    [107,28782069],
    [108,31777943],
    [109,35085654],
    [110,38737661],
    [111,42769801],
    [112,47221641],
    [113,52136869],
    [114,57563718],
    [115,63555443],
    [116,70170840],
    [117,77474828],
    [118,85539082],
    [119,94442737],
    [120,104273167],
    [121,115126838],
    [122,127110260],
    [123,140341028],
    [124,154948977],
    [125,171077457],
    [126,188884740],
    [127,200000000]
],
"ehp":{
    "attack": [[0,13034431],[13034431,180000]],
    "defence": [[0,13034431],[13034431,180000]],
    "strength": [[0,13034431],[13034431,180000]],
    "hitpoints": [[0,0]],
    "ranged":[[0,15000],[37224,40000],[101333,48000],[273742,56000],[449428,300000],[737627,400000],[5346332,525000],[8771558,575000],[13034431,186965569]],
    "prayer":[[0,140000]],
    "magic":[[0,0]],
    "cooking":[[0,40000],[7842,100000],[737627,250000]],
    "woodcutting":[[0,7000],[2411,16000],[13363,35000],[41171,49000],[302288,126515],[737627,137626],[1986068,149906],[5902831,160366],[13034431,200000]],
    "fletching":[[0,5000],[1154,8500],[4470,31000],[37224,63000],[61512,29000],[453512,693000],[13034431,850000]],
    "fishing":[[0,14000],[4470,30000],[13363,40000],[273742,65000],[737627,87000],[2421087,96403],[5902831,103105],[10692629,106619],[13034431,110000]],
    "firemaking":[[0,45000],[101333,150000],[737627,195000],[1986068,220625],[5346332,270000],[13034431,415000]],
    "crafting":[[0,80000],[13034431,95000]],
    "smithing":[[0,40000],[37224,86300],[273742,180000],[13034431,220000]],
    "mining":[[0,8000],[14833,20000],[41171,44000],[302288,60000],[547953,75000],[1986068,90000],[3258594,42000],[5902831,105000],[13034431,123000]],
    "herblore":[[0,42300]],
    "agility":[[0,6000],[13363,1500],[37224,20000],[75127,44000],[273742,57000],[3972294,59000],[9684577,62000],[13034431,70000]],
    "thieving":[[0,15000],[61512,60000],[166636,100000],[449428,220000],[5902831,255000],[13034431,500000]],
    "slayer":[[0,5000],[37224,12000],[100000,15000],[449428,18000],[1210421,25000],[7195629,40000],[13034431,90000]],
    "farming":[[0,10000],[2411,25000],[13363,38000],[61512,72000],[302288,110000],[1210421,134000],[13034431,800000]],
    "runecrafting":[[0,8000],[7842,30000],[101333,45000],[1210421,60000],[1475581,42500],[5346332,49000],[13034431,84500]],
    "hunter":[[0,5000],[12031,40000],[247886,80000],[1986068,115000],[3972294,135000],[6517253,150000],13034431,220000],
    "construction":[[0,20000],[18247,75000],[547953,585000],[153000,132500],[1530000,132500],[13034431,210000]]
}
}